P7
…
###Je considre que mes donnes correspondent  l'anne 2008
###aprs les ajustements
df$year_survey<-2008

###Je fait des vrification sur les na et le nombre de ligne par pays
sapply(df,function(x) sum(is.na(x)))

##      country  year_survey     quantile nb_quantiles       income       gdpppp 
##            0            0            0            0            0            0

df%>%group_by(country)%>%count()

## # A tibble: 111 x 2
## # Groups:   country [111]
##    country     n
##    <fct>   <int>
##  1 ALB       100
##  2 ARG       100
##  3 ARM       100
##  4 AUT       100
##  5 AZE       100
##  6 BEL       100
##  7 BFA       100
##  8 BGD       100
##  9 BGR       100
## 10 BIH       100
## # ... with 101 more rows
…
asie$region<-"asie"

afrique<-read.csv("afrique.csv",
              encoding = "UTF-8")%>%
  select("country_full" = "Zone")

afrique$region<-"afrique"

fao_region<-rbind(afrique,asie,europe,amerique_latine)

fao_region%>%group_by(country_full)%>%count()

## # A tibble: 207 x 2
## # Groups:   country_full [207]
##    country_full       n
##    <fct>          <int>
##  1 Afrique du Sud     1
##  2 Algrie            1
##  3 Angola             1
##  4 Bnin              1
##  5 Botswana           1
##  6 Burkina Faso       1
##  7 Burundi            1
##  8 Cabo Verde         1
##  9 Cameroun           1
## 10 Comores            1
## # ... with 197 more rows
…
